[
{
  "model": "auth.user",
  "pk": 1,
  "fields": {
    "password": "pbkdf2_sha256$30000$l91UPdYMBVYF$9TbT9PD8uCr15le2CIam8/uFjTV+yVG2FjZv6B+WKpI=",
    "last_login": "2017-02-07T18:46:41.555Z",
    "is_superuser": true,
    "username": "super",
    "first_name": "",
    "last_name": "",
    "email": "super@example.com",
    "is_staff": true,
    "is_active": true,
    "date_joined": "2017-01-28T02:12:03Z",
    "groups": [],
    "user_permissions": []
  }
},
{
  "model": "auth.user",
  "pk": 2,
  "fields": {
    "password": "pbkdf2_sha256$30000$2EwpWzc2Ca4e$/xOjpsnPjrRN8FXHR25eZWBtnQ3UfncViUfgW1Zvu1o=",
    "last_login": "2017-02-07T18:48:32.243Z",
    "is_superuser": false,
    "username": "admin",
    "first_name": "",
    "last_name": "",
    "email": "",
    "is_staff": true,
    "is_active": true,
    "date_joined": "2017-02-07T18:47:37Z",
    "groups": [],
    "user_permissions": [
      68,
      69,
      70,
      65,
      66,
      67,
      62,
      63,
      64,
      55,
      56,
      57,
      58
    ]
  }
}
]
